<?xml version="1.0" encoding="utf-8"?>
<!-- Generator: Adobe Illustrator 17.0.0, SVG Export Plug-In . SVG Version: 6.00 Build 0)  -->
<!DOCTYPE svg PUBLIC "-//W3C//DTD SVG 1.1//EN" "http://www.w3.org/Graphics/SVG/1.1/DTD/svg11.dtd">
<svg version="1.1" id="Layer_1" xmlns="http://www.w3.org/2000/svg" xmlns:xlink="http://www.w3.org/1999/xlink" x="0px" y="0px"
	 width="90.75px" height="92.25px" viewBox="0 0 90.75 92.25" enable-background="new 0 0 90.75 92.25" xml:space="preserve">
<g>
	<path d="M50.272,68.009c6.789-1.378,13.909-2.823,21.029-4.268c0.1,0.485,0.2,0.97,0.3,1.455
		c-9.988,2.159-19.977,4.319-30.471,6.587c0.752,2.983,1.307,5.183,1.946,7.719c12.941-2.711,25.576-5.358,38.685-8.104
		c-1.034-3.691-1.922-6.864-2.796-9.984C57.975,63.565,54.054,64.497,50.272,68.009z"/>
	<path d="M88.843,62.756c-2.502-2.452-5.603-0.746-8.642-0.985c0.527,3.107,1.579,5.172,2.184,8.738
		c2.732-1.558,5.062-1.613,6.737-3.269C90.151,66.22,89.081,62.989,88.843,62.756z"/>
	<path d="M28.406,78.417c4.098,0.729,6.91,1.228,10.536,1.873c-0.467-2.743-0.847-4.976-1.319-7.751
		C34.442,74.568,31.99,76.131,28.406,78.417z"/>
	<path d="M63.167,48.335v-0.624c0-1-0.81-1.81-1.81-1.81h-43.38c-1,0-1.81,0.81-1.81,1.81v0.624c0,1,0.81,1.81,1.81,1.81h43.38
		C62.356,50.145,63.167,49.334,63.167,48.335z"/>
	<path d="M50.297,57.124v-0.72c0-1-0.81-1.81-1.81-1.81H17.977c-1,0-1.81,0.81-1.81,1.81v0.72c0,1,0.81,1.81,1.81,1.81h30.511
		C49.487,58.934,50.297,58.124,50.297,57.124z"/>
	<path d="M40.625,65.897v-0.782c0-1-0.81-1.81-1.81-1.81H17.997c-1,0-1.81,0.81-1.81,1.81v0.782c0,1,0.81,1.81,1.81,1.81h20.818
		C39.814,67.707,40.625,66.897,40.625,65.897z"/>
	<path d="M71.333,84.56H8V26.343h18.857V7.486h44.476V59.1l5-0.544V2.486H26.857l-5,5L8,21.343l-5,5V89.56h73.333V75.466l-5,1.047
		V84.56z M22.857,12.143v10.2h-10.2L22.857,12.143z"/>
	<path d="M43.115,35.791c0,0.083,0,0.157,0,0.268c0,0,1.462,2.947,9.929,2.947c8.467,0,9.929-2.947,9.929-2.947
		c0-0.22,0-0.373,0-0.477c-0.001,0.035-0.005-0.033-0.011-0.426c-0.097-6.144-0.9-7.894-7.04-9.003c0,0-0.865,1.101-2.879,1.101
		c-2.015,0-2.879-1.101-2.879-1.101c-6.073,1.096-6.924,2.821-7.036,8.803c-0.009,0.489-0.014,0.514-0.015,0.457
		c0,0.065,0,0.181,0.001,0.327C43.115,35.689,43.114,35.741,43.115,35.791z"/>
	<path d="M58.302,19.278c0-3.527-0.773-6.386-5.258-6.386c-4.485,0-5.257,2.859-5.257,6.386c0,3.527,2.354,6.386,5.257,6.386
		C55.948,25.663,58.302,22.804,58.302,19.278z"/>
</g>
</svg>
